timer/dump.vcd
$date
	Tue Jul  7 15:25:52 2020
$end
$version
	Icarus Verilog
$end
$timescale
	1ps
$end
$scope module timer_tb $end
$scope module tmr0 $end
$var wire 32 ! addr [31:0] $end
$var wire 1 " clk $end
$var wire 1 # mem_ready $end
$var wire 1 $ mem_valid $end
$var wire 1 % resetn $end
$var wire 32 & timer_value [31:0] $end
$var wire 8 ' wdata [7:0] $end
$var wire 1 ( wen $end
$var wire 1 ) write_conf $end
$var wire 1 * tmr_int $end
$var wire 1 + go_clear $end
$var wire 1 , go $end
$var wire 1 - en $end
$var wire 1 . auto_load $end
$var reg 8 / timer_rdata [7:0] $end
$var reg 1 0 timer_ready $end
$scope module tmr $end
$var wire 1 . auto_load $end
$var wire 1 " clk $end
$var wire 1 - en $end
$var wire 1 , go $end
$var wire 1 % resetn $end
$var wire 32 1 timer_value [31:0] $end
$var reg 1 + go_clear $end
$var reg 32 2 timer_count [31:0] $end
$var reg 2 3 timer_state [1:0] $end
$var reg 1 * tmr_int $end
$upscope $end
$upscope $end
$upscope $end
$enddefinitions $end
#0
$dumpvars
b0 3
bx 2
b11111111111111111111111111110000 1
00
bx /
x.
x-
x,
x+
x*
x)
0(
b0 '
b11111111111111111111111111110000 &
1%
0$
0#
1"
b0 !
$end
#31250
0%
0"
#62500
0,
0-
0.
0)
b0 /
0+
0*
b0 2
1"
#93750
0"
1%
#125000
1"
#156250
0"
#187500
1"
#218750
0"
#250000
1"
#281250
0"
#312500
1"
#343750
0"
#375000
1"
#406250
0"
b100 '
#437500
1"
#468750
0"
#500000
1"
#531250
0"
b110 '
#562500
1"
#593750
0"
#625000
1"
#656250
0"
1(
1$
b100000000000000011100 !
#687500
1,
1-
1#
b110 /
10
1"
#718750
0"
0(
0$
#750000
0#
b1 3
b11111111111111111111111111110000 2
00
1"
#781250
0"
#812500
b11111111111111111111111111110001 2
1"
#843750
0"
#875000
b11111111111111111111111111110010 2
1"
#906250
0"
#937500
b11111111111111111111111111110011 2
1"
#968750
0"
#1000000
b11111111111111111111111111110100 2
1"
#1031250
0"
#1062500
b11111111111111111111111111110101 2
1"
#1093750
0"
#1125000
b11111111111111111111111111110110 2
1"
#1156250
0"
#1187500
b11111111111111111111111111110111 2
1"
#1218750
0"
#1250000
b11111111111111111111111111111000 2
1"
#1281250
0"
#1312500
b11111111111111111111111111111001 2
1"
#1343750
0"
#1375000
b11111111111111111111111111111010 2
1"
#1406250
0"
#1437500
b11111111111111111111111111111011 2
1"
#1468750
0"
#1500000
b11111111111111111111111111111100 2
1"
#1531250
0"
#1562500
b11111111111111111111111111111101 2
1"
#1593750
0"
#1625000
b11111111111111111111111111111110 2
1"
#1656250
0"
#1687500
b11111111111111111111111111111111 2
1"
#1718750
0"
#1750000
1)
1*
1+
b11 3
b0 2
1"
#1781250
0"
#1812500
0,
0)
b101 /
b0 3
0+
0*
1"
#1843750
0"
#1875000
1"
#1906250
0"
#1937500
1"
#1968750
0"
b1110 '
1(
1$
#2000000
1,
1.
1#
b1110 /
10
1"
#2031250
0"
0(
0$
#2062500
0#
00
b1 3
b11111111111111111111111111110000 2
1"
#2093750
0"
#2125000
b11111111111111111111111111110001 2
1"
#2156250
0"
#2187500
b11111111111111111111111111110010 2
1"
#2218750
0"
#2250000
b11111111111111111111111111110011 2
1"
#2281250
0"
#2312500
b11111111111111111111111111110100 2
1"
#2343750
0"
#2375000
b11111111111111111111111111110101 2
1"
#2406250
0"
#2437500
b11111111111111111111111111110110 2
1"
#2468750
0"
#2500000
b11111111111111111111111111110111 2
1"
#2531250
0"
#2562500
b11111111111111111111111111111000 2
1"
#2593750
0"
#2625000
b11111111111111111111111111111001 2
1"
#2656250
0"
#2687500
b11111111111111111111111111111010 2
1"
#2718750
0"
#2750000
b11111111111111111111111111111011 2
1"
#2781250
0"
#2812500
b11111111111111111111111111111100 2
1"
#2843750
0"
#2875000
b11111111111111111111111111111101 2
1"
#2906250
0"
#2937500
b11111111111111111111111111111110 2
1"
#2968750
0"
#3000000
b11111111111111111111111111111111 2
1"
#3031250
0"
#3062500
1)
1*
1+
b11 3
b0 2
1"
#3093750
0"
#3125000
0)
0,
b1 3
b11111111111111111111111111110000 2
0+
0*
b1101 /
1"
#3156250
0"
#3187500
b11111111111111111111111111110001 2
1"
#3218750
0"
#3250000
b11111111111111111111111111110010 2
1"
#3281250
0"
1(
1$
#3312500
1,
1#
b1110 /
10
b11111111111111111111111111110011 2
1"
#3343750
0"
0(
0$
#3375000
0#
b11111111111111111111111111110100 2
00
1"
#3406250
0"
#3437500
b11111111111111111111111111110101 2
1"
#3468750
0"
#3500000
b11111111111111111111111111110110 2
1"
#3531250
0"
#3562500
b11111111111111111111111111110111 2
1"
#3593750
0"
#3625000
b11111111111111111111111111111000 2
1"
#3656250
0"
#3687500
b11111111111111111111111111111001 2
1"
#3718750
0"
#3750000
b11111111111111111111111111111010 2
1"
#3781250
0"
#3812500
b11111111111111111111111111111011 2
1"
#3843750
0"
#3875000
b11111111111111111111111111111100 2
1"
#3906250
0"
#3937500
b11111111111111111111111111111101 2
1"
#3968750
0"
#4000000
b11111111111111111111111111111110 2
1"
#4031250
0"
#4062500
b11111111111111111111111111111111 2
1"
#4093750
0"
#4125000
1)
1*
1+
b11 3
b0 2
1"
#4156250
0"
#4187500
0,
0)
b1101 /
b1 3
b11111111111111111111111111110000 2
0+
0*
1"
#4218750
0"
#4250000
b11111111111111111111111111110001 2
1"
#4281250
0"
#4312500
b11111111111111111111111111110010 2
1"
#4343750
0"
#4375000
b11111111111111111111111111110011 2
1"
#4406250
0"
#4437500
b11111111111111111111111111110100 2
1"
#4468750
0"
#4500000
b11111111111111111111111111110101 2
1"
#4531250
0"
#4562500
b11111111111111111111111111110110 2
1"
#4593750
0"
#4625000
b11111111111111111111111111110111 2
1"
#4656250
0"
#4687500
b11111111111111111111111111111000 2
1"
#4718750
0"
#4750000
b11111111111111111111111111111001 2
1"
#4781250
0"
#4812500
b11111111111111111111111111111010 2
1"
#4843750
0"
#4875000
b11111111111111111111111111111011 2
1"
#4906250
0"
#4937500
b11111111111111111111111111111100 2
1"
#4968750
0"
#5000000
b11111111111111111111111111111101 2
1"
#5031250
0"
#5062500
b11111111111111111111111111111110 2
1"
#5093750
0"
#5125000
b11111111111111111111111111111111 2
1"
#5156250
0"
#5187500
1)
1*
1+
b11 3
b0 2
1"
#5218750
0"
#5250000
0)
b1 3
b11111111111111111111111111110000 2
0+
0*
1"
#5281250
0"
#5312500
b11111111111111111111111111110001 2
1"
#5343750
0"
#5375000
b11111111111111111111111111110010 2
1"
#5406250
0"
#5437500
b11111111111111111111111111110011 2
1"
#5468750
0"
#5500000
b11111111111111111111111111110100 2
1"
#5531250
0"
#5562500
b11111111111111111111111111110101 2
1"
#5593750
0"
#5625000
b11111111111111111111111111110110 2
1"
#5656250
0"
#5687500
b11111111111111111111111111110111 2
1"
#5718750
0"
#5750000
b11111111111111111111111111111000 2
1"
#5781250
0"
#5812500
b11111111111111111111111111111001 2
1"
#5843750
0"
#5875000
b11111111111111111111111111111010 2
1"
#5906250
0"
#5937500
b11111111111111111111111111111011 2
1"
#5968750
0"
#6000000
b11111111111111111111111111111100 2
1"
#6031250
0"
#6062500
b11111111111111111111111111111101 2
1"
#6093750
0"
#6125000
b11111111111111111111111111111110 2
1"
#6156250
0"
#6187500
b11111111111111111111111111111111 2
1"
#6218750
0"
#6250000
1)
1*
1+
b11 3
b0 2
1"
#6281250
0"
#6312500
0)
b1 3
b11111111111111111111111111110000 2
0+
0*
1"
#6343750
0"
#6375000
b11111111111111111111111111110001 2
1"
#6406250
0"
#6437500
b11111111111111111111111111110010 2
1"
#6468750
0"
#6500000
b11111111111111111111111111110011 2
1"
#6531250
0"
#6562500
b11111111111111111111111111110100 2
1"
#6593750
0"
#6625000
b11111111111111111111111111110101 2
1"
#6656250
0"
#6687500
b11111111111111111111111111110110 2
1"
#6718750
0"
#6750000
b11111111111111111111111111110111 2
1"
#6781250
0"
#6812500
b11111111111111111111111111111000 2
1"
#6843750
0"
#6875000
b11111111111111111111111111111001 2
1"
#6906250
0"
#6937500
b11111111111111111111111111111010 2
1"
#6968750
0"
#7000000
b11111111111111111111111111111011 2
1"
#7031250
0"
#7062500
b11111111111111111111111111111100 2
1"
#7093750
0"
b0 '
1(
1$
#7125000
0-
0.
1#
b11111111111111111111111111111101 2
b0 /
10
1"
#7156250
0"
0(
0$
#7187500
0#
00
b0 3
1"
